DE10-Lite digital processing/simulation/qsim/TD5_ELEN4_ex1.msim.vcd
$comment
	File created using the following command:
		vcd file TD5_ELEN4_ex1.msim.vcd -direction
$end
$date
	Thu Jun 13 16:41:47 2024
$end
$version
	ModelSim Version 10.5b
$end
$timescale
	1ps
$end

$scope module volume_vhd_vec_tst $end
$var wire 1 ! E [7] $end
$var wire 1 " E [6] $end
$var wire 1 # E [5] $end
$var wire 1 $ E [4] $end
$var wire 1 % E [3] $end
$var wire 1 & E [2] $end
$var wire 1 ' E [1] $end
$var wire 1 ( E [0] $end
$var wire 1 ) H $end
$var wire 1 * S [7] $end
$var wire 1 + S [6] $end
$var wire 1 , S [5] $end
$var wire 1 - S [4] $end
$var wire 1 . S [3] $end
$var wire 1 / S [2] $end
$var wire 1 0 S [1] $end
$var wire 1 1 S [0] $end
$var wire 1 2 SW [6] $end
$var wire 1 3 SW [5] $end
$var wire 1 4 SW [4] $end
$var wire 1 5 SW [3] $end
$var wire 1 6 SW [2] $end
$var wire 1 7 SW [1] $end
$var wire 1 8 SW [0] $end

$scope module i1 $end
$var wire 1 9 gnd $end
$var wire 1 : vcc $end
$var wire 1 ; unknown $end
$var wire 1 < devoe $end
$var wire 1 = devclrn $end
$var wire 1 > devpor $end
$var wire 1 ? ww_devoe $end
$var wire 1 @ ww_devclrn $end
$var wire 1 A ww_devpor $end
$var wire 1 B ww_E [7] $end
$var wire 1 C ww_E [6] $end
$var wire 1 D ww_E [5] $end
$var wire 1 E ww_E [4] $end
$var wire 1 F ww_E [3] $end
$var wire 1 G ww_E [2] $end
$var wire 1 H ww_E [1] $end
$var wire 1 I ww_E [0] $end
$var wire 1 J ww_SW [6] $end
$var wire 1 K ww_SW [5] $end
$var wire 1 L ww_SW [4] $end
$var wire 1 M ww_SW [3] $end
$var wire 1 N ww_SW [2] $end
$var wire 1 O ww_SW [1] $end
$var wire 1 P ww_SW [0] $end
$var wire 1 Q ww_S [7] $end
$var wire 1 R ww_S [6] $end
$var wire 1 S ww_S [5] $end
$var wire 1 T ww_S [4] $end
$var wire 1 U ww_S [3] $end
$var wire 1 V ww_S [2] $end
$var wire 1 W ww_S [1] $end
$var wire 1 X ww_S [0] $end
$var wire 1 Y ww_H $end
$var wire 1 Z \~QUARTUS_CREATED_ADC1~_CHSEL_bus\ [4] $end
$var wire 1 [ \~QUARTUS_CREATED_ADC1~_CHSEL_bus\ [3] $end
$var wire 1 \ \~QUARTUS_CREATED_ADC1~_CHSEL_bus\ [2] $end
$var wire 1 ] \~QUARTUS_CREATED_ADC1~_CHSEL_bus\ [1] $end
$var wire 1 ^ \~QUARTUS_CREATED_ADC1~_CHSEL_bus\ [0] $end
$var wire 1 _ \~QUARTUS_CREATED_ADC2~_CHSEL_bus\ [4] $end
$var wire 1 ` \~QUARTUS_CREATED_ADC2~_CHSEL_bus\ [3] $end
$var wire 1 a \~QUARTUS_CREATED_ADC2~_CHSEL_bus\ [2] $end
$var wire 1 b \~QUARTUS_CREATED_ADC2~_CHSEL_bus\ [1] $end
$var wire 1 c \~QUARTUS_CREATED_ADC2~_CHSEL_bus\ [0] $end
$var wire 1 d \H~inputclkctrl_INCLK_bus\ [3] $end
$var wire 1 e \H~inputclkctrl_INCLK_bus\ [2] $end
$var wire 1 f \H~inputclkctrl_INCLK_bus\ [1] $end
$var wire 1 g \H~inputclkctrl_INCLK_bus\ [0] $end
$var wire 1 h \~QUARTUS_CREATED_GND~I_combout\ $end
$var wire 1 i \~QUARTUS_CREATED_UNVM~~busy\ $end
$var wire 1 j \~QUARTUS_CREATED_ADC1~~eoc\ $end
$var wire 1 k \~QUARTUS_CREATED_ADC2~~eoc\ $end
$var wire 1 l \S[0]~output_o\ $end
$var wire 1 m \S[1]~output_o\ $end
$var wire 1 n \S[2]~output_o\ $end
$var wire 1 o \S[3]~output_o\ $end
$var wire 1 p \S[4]~output_o\ $end
$var wire 1 q \S[5]~output_o\ $end
$var wire 1 r \S[6]~output_o\ $end
$var wire 1 s \S[7]~output_o\ $end
$var wire 1 t \H~input_o\ $end
$var wire 1 u \H~inputclkctrl_outclk\ $end
$var wire 1 v \SW[0]~input_o\ $end
$var wire 1 w \SW[4]~input_o\ $end
$var wire 1 x \SW[1]~input_o\ $end
$var wire 1 y \SW[5]~input_o\ $end
$var wire 1 z \SW[2]~input_o\ $end
$var wire 1 { \SW[3]~input_o\ $end
$var wire 1 | \SW[6]~input_o\ $end
$var wire 1 } \tempo2~0_combout\ $end
$var wire 1 ~ \tempo2~1_combout\ $end
$var wire 1 !! \tempo[6]~4_combout\ $end
$var wire 1 "! \E[4]~input_o\ $end
$var wire 1 #! \tempo2~10_combout\ $end
$var wire 1 $! \E[7]~input_o\ $end
$var wire 1 %! \Mult1|mult_core|_~4_combout\ $end
$var wire 1 &! \Mult1|mult_core|_~3_combout\ $end
$var wire 1 '! \Mult1|mult_core|romout[2][4]~10_combout\ $end
$var wire 1 (! \E[1]~input_o\ $end
$var wire 1 )! \Add3~8_combout\ $end
$var wire 1 *! \Add3~5\ $end
$var wire 1 +! \Add3~6_combout\ $end
$var wire 1 ,! \Add5~1\ $end
$var wire 1 -! \Add5~2_combout\ $end
$var wire 1 .! \Add4~1\ $end
$var wire 1 /! \Add4~2_combout\ $end
$var wire 1 0! \Mult1|mult_core|romout[0][5]~2_combout\ $end
$var wire 1 1! \Mult1|mult_core|romout[0][4]~3_combout\ $end
$var wire 1 2! \Mult1|mult_core|padder|adder[0]|auto_generated|op_1~1\ $end
$var wire 1 3! \Mult1|mult_core|padder|adder[0]|auto_generated|op_1~2_combout\ $end
$var wire 1 4! \Add2~1\ $end
$var wire 1 5! \Add2~3\ $end
$var wire 1 6! \Add2~4_combout\ $end
$var wire 1 7! \tempo2~11_combout\ $end
$var wire 1 8! \Add0~1\ $end
$var wire 1 9! \Add0~3\ $end
$var wire 1 :! \Add0~4_combout\ $end
$var wire 1 ;! \tempo[6]~5_combout\ $end
$var wire 1 <! \Add1~1\ $end
$var wire 1 =! \Add1~3\ $end
$var wire 1 >! \Add1~4_combout\ $end
$var wire 1 ?! \tempo~37_combout\ $end
$var wire 1 @! \Mult0|mult_core|romout[1][1]~2_combout\ $end
$var wire 1 A! \Mult0|mult_core|romout[0][5]~3_combout\ $end
$var wire 1 B! \Mult0|mult_core|romout[0][4]~4_combout\ $end
$var wire 1 C! \Mult0|mult_core|padder|adder[0]|auto_generated|op_1~1\ $end
$var wire 1 D! \Mult0|mult_core|padder|adder[0]|auto_generated|op_1~2_combout\ $end
$var wire 1 E! \tempo~38_combout\ $end
$var wire 1 F! \tempo~39_combout\ $end
$var wire 1 G! \tempo~40_combout\ $end
$var wire 1 H! \tempo2~12_combout\ $end
$var wire 1 I! \Add3~1_cout\ $end
$var wire 1 J! \Add3~3\ $end
$var wire 1 K! \Add3~4_combout\ $end
$var wire 1 L! \Mult1|mult_core|romout[0][3]~11_combout\ $end
$var wire 1 M! \Add2~0_combout\ $end
$var wire 1 N! \Mult0|mult_core|romout[0][3]~11_combout\ $end
$var wire 1 O! \Add0~0_combout\ $end
$var wire 1 P! \tempo~45_combout\ $end
$var wire 1 Q! \Add1~0_combout\ $end
$var wire 1 R! \tempo~46_combout\ $end
$var wire 1 S! \Add3~2_combout\ $end
$var wire 1 T! \tempo~47_combout\ $end
$var wire 1 U! \tempo~48_combout\ $end
$var wire 1 V! \tempo2~14_combout\ $end
$var wire 1 W! \Add4~0_combout\ $end
$var wire 1 X! \Add5~0_combout\ $end
$var wire 1 Y! \Mult1|mult_core|padder|adder[0]|auto_generated|op_1~0_combout\ $end
$var wire 1 Z! \Add2~2_combout\ $end
$var wire 1 [! \Add0~2_combout\ $end
$var wire 1 \! \Add1~2_combout\ $end
$var wire 1 ]! \tempo~41_combout\ $end
$var wire 1 ^! \Mult0|mult_core|padder|adder[0]|auto_generated|op_1~0_combout\ $end
$var wire 1 _! \tempo~42_combout\ $end
$var wire 1 `! \tempo~43_combout\ $end
$var wire 1 a! \tempo~44_combout\ $end
$var wire 1 b! \tempo2~13_combout\ $end
$var wire 1 c! \Mult1|mult_core|romout[0][7]~5_combout\ $end
$var wire 1 d! \Mult1|mult_core|romout[1][3]~4_combout\ $end
$var wire 1 e! \Mult1|mult_core|romout[0][6]~1_combout\ $end
$var wire 1 f! \Mult1|mult_core|padder|adder[0]|auto_generated|op_1~3\ $end
$var wire 1 g! \Mult1|mult_core|padder|adder[0]|auto_generated|op_1~5\ $end
$var wire 1 h! \Mult1|mult_core|padder|adder[0]|auto_generated|op_1~6_combout\ $end
$var wire 1 i! \Add3~10_combout\ $end
$var wire 1 j! \Add4~3\ $end
$var wire 1 k! \Add4~5\ $end
$var wire 1 l! \Add4~6_combout\ $end
$var wire 1 m! \Mult1|mult_core|_~0_combout\ $end
$var wire 1 n! \Mult0|mult_core|romout[1][3]~5_combout\ $end
$var wire 1 o! \Mult0|mult_core|romout[1][2]~0_combout\ $end
$var wire 1 p! \Mult0|mult_core|romout[0][6]~1_combout\ $end
$var wire 1 q! \Mult0|mult_core|padder|adder[0]|auto_generated|op_1~3\ $end
$var wire 1 r! \Mult0|mult_core|padder|adder[0]|auto_generated|op_1~5\ $end
$var wire 1 s! \Mult0|mult_core|padder|adder[0]|auto_generated|op_1~6_combout\ $end
$var wire 1 t! \Add0~5\ $end
$var wire 1 u! \Add0~7\ $end
$var wire 1 v! \Add0~8_combout\ $end
$var wire 1 w! \tempo~10_combout\ $end
$var wire 1 x! \Add2~5\ $end
$var wire 1 y! \Add2~7\ $end
$var wire 1 z! \Add2~8_combout\ $end
$var wire 1 {! \Add1~5\ $end
$var wire 1 |! \Add1~7\ $end
$var wire 1 }! \Add1~8_combout\ $end
$var wire 1 ~! \tempo~11_combout\ $end
$var wire 1 !" \tempo~12_combout\ $end
$var wire 1 "" \Add5~3\ $end
$var wire 1 #" \Add5~5\ $end
$var wire 1 $" \Add5~6_combout\ $end
$var wire 1 %" \tempo~13_combout\ $end
$var wire 1 &" \tempo2~3_combout\ $end
$var wire 1 '" \Add3~7\ $end
$var wire 1 (" \Add3~9\ $end
$var wire 1 )" \Add3~11\ $end
$var wire 1 *" \Add3~12_combout\ $end
$var wire 1 +" \Add4~7\ $end
$var wire 1 ," \Add4~8_combout\ $end
$var wire 1 -" \Mult1|mult_core|romout[1][4]~6_combout\ $end
$var wire 1 ." \Mult1|mult_core|padder|adder[0]|auto_generated|op_1~7\ $end
$var wire 1 /" \Mult1|mult_core|padder|adder[0]|auto_generated|op_1~8_combout\ $end
$var wire 1 0" \Mult1|mult_core|padder|sub_par_add|adder[0]|auto_generated|op_1~0_combout\ $end
$var wire 1 1" \Mult0|mult_core|romout[1][4]~6_combout\ $end
$var wire 1 2" \Mult0|mult_core|padder|adder[0]|auto_generated|op_1~7\ $end
$var wire 1 3" \Mult0|mult_core|padder|adder[0]|auto_generated|op_1~8_combout\ $end
$var wire 1 4" \Mult0|mult_core|padder|sub_par_add|adder[0]|auto_generated|op_1~0_combout\ $end
$var wire 1 5" \Add2~9\ $end
$var wire 1 6" \Add2~10_combout\ $end
$var wire 1 7" \Add1~9\ $end
$var wire 1 8" \Add1~10_combout\ $end
$var wire 1 9" \Add0~9\ $end
$var wire 1 :" \Add0~10_combout\ $end
$var wire 1 ;" \tempo~14_combout\ $end
$var wire 1 <" \tempo~15_combout\ $end
$var wire 1 =" \tempo~16_combout\ $end
$var wire 1 >" \Add3~13\ $end
$var wire 1 ?" \Add3~14_combout\ $end
$var wire 1 @" \Add5~7\ $end
$var wire 1 A" \Add5~8_combout\ $end
$var wire 1 B" \tempo~17_combout\ $end
$var wire 1 C" \E[2]~input_o\ $end
$var wire 1 D" \tempo2~4_combout\ $end
$var wire 1 E" \Mult1|mult_core|romout[1][7]~9_combout\ $end
$var wire 1 F" \Mult1|mult_core|romout[1][6]~combout\ $end
$var wire 1 G" \Mult1|mult_core|padder|adder[0]|auto_generated|op_1~9\ $end
$var wire 1 H" \Mult1|mult_core|padder|adder[0]|auto_generated|op_1~11\ $end
$var wire 1 I" \Mult1|mult_core|padder|adder[0]|auto_generated|op_1~13\ $end
$var wire 1 J" \Mult1|mult_core|padder|adder[0]|auto_generated|op_1~14_combout\ $end
$var wire 1 K" \Mult1|mult_core|padder|adder[0]|auto_generated|op_1~12_combout\ $end
$var wire 1 L" \Mult1|mult_core|romout[2][2]~8_combout\ $end
$var wire 1 M" \Mult1|mult_core|padder|sub_par_add|adder[0]|auto_generated|op_1~1\ $end
$var wire 1 N" \Mult1|mult_core|padder|sub_par_add|adder[0]|auto_generated|op_1~3\ $end
$var wire 1 O" \Mult1|mult_core|padder|sub_par_add|adder[0]|auto_generated|op_1~5\ $end
$var wire 1 P" \Mult1|mult_core|padder|sub_par_add|adder[0]|auto_generated|op_1~7\ $end
$var wire 1 Q" \Mult1|mult_core|padder|sub_par_add|adder[0]|auto_generated|op_1~9\ $end
$var wire 1 R" \Mult1|mult_core|padder|sub_par_add|adder[0]|auto_generated|op_1~10_combout\ $end
$var wire 1 S" \Add3~15\ $end
$var wire 1 T" \Add3~17\ $end
$var wire 1 U" \Add3~19\ $end
$var wire 1 V" \Add3~20_combout\ $end
$var wire 1 W" \Add3~18_combout\ $end
$var wire 1 X" \Add4~9\ $end
$var wire 1 Y" \Add4~11\ $end
$var wire 1 Z" \Add4~13\ $end
$var wire 1 [" \Add4~15\ $end
$var wire 1 \" \Add4~17\ $end
$var wire 1 ]" \Add4~18_combout\ $end
$var wire 1 ^" \Add5~9\ $end
$var wire 1 _" \Add5~11\ $end
$var wire 1 `" \Add5~13\ $end
$var wire 1 a" \Add5~15\ $end
$var wire 1 b" \Add5~17\ $end
$var wire 1 c" \Add5~18_combout\ $end
$var wire 1 d" \tempo~35_combout\ $end
$var wire 1 e" \Add1~11\ $end
$var wire 1 f" \Add1~13\ $end
$var wire 1 g" \Add1~15\ $end
$var wire 1 h" \Add1~17\ $end
$var wire 1 i" \Add1~19\ $end
$var wire 1 j" \Add1~20_combout\ $end
$var wire 1 k" \Add2~11\ $end
$var wire 1 l" \Add2~13\ $end
$var wire 1 m" \Add2~15\ $end
$var wire 1 n" \Add2~17\ $end
$var wire 1 o" \Add2~19\ $end
$var wire 1 p" \Add2~20_combout\ $end
$var wire 1 q" \tempo~49_combout\ $end
$var wire 1 r" \Add0~11\ $end
$var wire 1 s" \Add0~13\ $end
$var wire 1 t" \Add0~15\ $end
$var wire 1 u" \Add0~17\ $end
$var wire 1 v" \Add0~19\ $end
$var wire 1 w" \Add0~20_combout\ $end
$var wire 1 x" \Mult0|mult_core|romout[2][5]~10_combout\ $end
$var wire 1 y" \Mult1|mult_core|_~1_combout\ $end
$var wire 1 z" \Mult1|mult_core|_~2_combout\ $end
$var wire 1 {" \Mult0|mult_core|romout[2][3]~combout\ $end
$var wire 1 |" \Mult0|mult_core|_~0_combout\ $end
$var wire 1 }" \Mult0|mult_core|romout[1][6]~9_combout\ $end
$var wire 1 ~" \Mult0|mult_core|romout[1][5]~7_combout\ $end
$var wire 1 !# \Mult0|mult_core|padder|adder[0]|auto_generated|op_1~9\ $end
$var wire 1 "# \Mult0|mult_core|padder|adder[0]|auto_generated|op_1~11\ $end
$var wire 1 ## \Mult0|mult_core|padder|adder[0]|auto_generated|op_1~13\ $end
$var wire 1 $# \Mult0|mult_core|padder|adder[0]|auto_generated|op_1~14_combout\ $end
$var wire 1 %# \Mult0|mult_core|romout[2][2]~combout\ $end
$var wire 1 &# \Mult0|mult_core|padder|adder[0]|auto_generated|op_1~12_combout\ $end
$var wire 1 '# \Mult0|mult_core|padder|adder[0]|auto_generated|op_1~10_combout\ $end
$var wire 1 (# \Mult0|mult_core|romout[2][1]~8_combout\ $end
$var wire 1 )# \Mult0|mult_core|padder|sub_par_add|adder[0]|auto_generated|op_1~1\ $end
$var wire 1 *# \Mult0|mult_core|padder|sub_par_add|adder[0]|auto_generated|op_1~3\ $end
$var wire 1 +# \Mult0|mult_core|padder|sub_par_add|adder[0]|auto_generated|op_1~5\ $end
$var wire 1 ,# \Mult0|mult_core|padder|sub_par_add|adder[0]|auto_generated|op_1~7\ $end
$var wire 1 -# \Mult0|mult_core|padder|sub_par_add|adder[0]|auto_generated|op_1~9\ $end
$var wire 1 .# \Mult0|mult_core|padder|sub_par_add|adder[0]|auto_generated|op_1~10_combout\ $end
$var wire 1 /# \tempo~50_combout\ $end
$var wire 1 0# \tempo~34_combout\ $end
$var wire 1 1# \tempo~36_combout\ $end
$var wire 1 2# \tempo2~9_combout\ $end
$var wire 1 3# \Mult1|mult_core|romout[2][3]~combout\ $end
$var wire 1 4# \Mult1|mult_core|padder|sub_par_add|adder[0]|auto_generated|op_1~6_combout\ $end
$var wire 1 5# \Add5~14_combout\ $end
$var wire 1 6# \Add4~14_combout\ $end
$var wire 1 7# \Add2~16_combout\ $end
$var wire 1 8# \Add1~16_combout\ $end
$var wire 1 9# \Add0~16_combout\ $end
$var wire 1 :# \Mult0|mult_core|padder|sub_par_add|adder[0]|auto_generated|op_1~6_combout\ $end
$var wire 1 ;# \tempo~26_combout\ $end
$var wire 1 <# \tempo~27_combout\ $end
$var wire 1 =# \tempo~28_combout\ $end
$var wire 1 ># \tempo~29_combout\ $end
$var wire 1 ?# \E[5]~input_o\ $end
$var wire 1 @# \tempo2~7_combout\ $end
$var wire 1 A# \Add4~16_combout\ $end
$var wire 1 B# \Add5~16_combout\ $end
$var wire 1 C# \Add1~18_combout\ $end
$var wire 1 D# \Add0~18_combout\ $end
$var wire 1 E# \tempo~30_combout\ $end
$var wire 1 F# \Add2~18_combout\ $end
$var wire 1 G# \Mult0|mult_core|padder|sub_par_add|adder[0]|auto_generated|op_1~8_combout\ $end
$var wire 1 H# \tempo~31_combout\ $end
$var wire 1 I# \Mult1|mult_core|padder|sub_par_add|adder[0]|auto_generated|op_1~8_combout\ $end
$var wire 1 J# \tempo~32_combout\ $end
$var wire 1 K# \tempo~33_combout\ $end
$var wire 1 L# \E[6]~input_o\ $end
$var wire 1 M# \tempo2~8_combout\ $end
$var wire 1 N# \Add3~16_combout\ $end
$var wire 1 O# \Add4~12_combout\ $end
$var wire 1 P# \Add5~12_combout\ $end
$var wire 1 Q# \Mult1|mult_core|padder|sub_par_add|adder[0]|auto_generated|op_1~4_combout\ $end
$var wire 1 R# \Add1~14_combout\ $end
$var wire 1 S# \Add0~14_combout\ $end
$var wire 1 T# \tempo~22_combout\ $end
$var wire 1 U# \Mult0|mult_core|padder|sub_par_add|adder[0]|auto_generated|op_1~4_combout\ $end
$var wire 1 V# \Add2~14_combout\ $end
$var wire 1 W# \tempo~23_combout\ $end
$var wire 1 X# \tempo~24_combout\ $end
$var wire 1 Y# \tempo~25_combout\ $end
$var wire 1 Z# \tempo2~6_combout\ $end
$var wire 1 [# \Mult1|mult_core|romout[1][5]~7_combout\ $end
$var wire 1 \# \Mult1|mult_core|padder|adder[0]|auto_generated|op_1~10_combout\ $end
$var wire 1 ]# \Mult1|mult_core|padder|sub_par_add|adder[0]|auto_generated|op_1~2_combout\ $end
$var wire 1 ^# \Add5~10_combout\ $end
$var wire 1 _# \Add4~10_combout\ $end
$var wire 1 `# \Add2~12_combout\ $end
$var wire 1 a# \Add1~12_combout\ $end
$var wire 1 b# \Add0~12_combout\ $end
$var wire 1 c# \Mult0|mult_core|padder|sub_par_add|adder[0]|auto_generated|op_1~2_combout\ $end
$var wire 1 d# \tempo~18_combout\ $end
$var wire 1 e# \tempo~19_combout\ $end
$var wire 1 f# \tempo~20_combout\ $end
$var wire 1 g# \tempo~21_combout\ $end
$var wire 1 h# \E[3]~input_o\ $end
$var wire 1 i# \tempo2~5_combout\ $end
$var wire 1 j# \Mult1|mult_core|romout[1][2]~0_combout\ $end
$var wire 1 k# \Mult1|mult_core|padder|adder[0]|auto_generated|op_1~4_combout\ $end
$var wire 1 l# \Add1~6_combout\ $end
$var wire 1 m# \Add0~6_combout\ $end
$var wire 1 n# \tempo~6_combout\ $end
$var wire 1 o# \Add2~6_combout\ $end
$var wire 1 p# \Mult0|mult_core|padder|adder[0]|auto_generated|op_1~4_combout\ $end
$var wire 1 q# \tempo~7_combout\ $end
$var wire 1 r# \tempo~8_combout\ $end
$var wire 1 s# \Add5~4_combout\ $end
$var wire 1 t# \Add4~4_combout\ $end
$var wire 1 u# \tempo~9_combout\ $end
$var wire 1 v# \E[0]~input_o\ $end
$var wire 1 w# \tempo2~2_combout\ $end
$var wire 1 x# \S[0]~reg0_q\ $end
$var wire 1 y# \S[1]~reg0feeder_combout\ $end
$var wire 1 z# \S[1]~reg0_q\ $end
$var wire 1 {# \S[2]~reg0_q\ $end
$var wire 1 |# \S[3]~reg0_q\ $end
$var wire 1 }# \S[4]~reg0_q\ $end
$var wire 1 ~# \S[5]~reg0feeder_combout\ $end
$var wire 1 !$ \S[5]~reg0_q\ $end
$var wire 1 "$ \S[6]~reg0_q\ $end
$var wire 1 #$ \S[7]~reg0feeder_combout\ $end
$var wire 1 $$ \S[7]~reg0_q\ $end
$var wire 1 %$ tempo2 [10] $end
$var wire 1 &$ tempo2 [9] $end
$var wire 1 '$ tempo2 [8] $end
$var wire 1 ($ tempo2 [7] $end
$var wire 1 )$ tempo2 [6] $end
$var wire 1 *$ tempo2 [5] $end
$var wire 1 +$ tempo2 [4] $end
$var wire 1 ,$ tempo2 [3] $end
$var wire 1 -$ tempo2 [2] $end
$var wire 1 .$ tempo2 [1] $end
$var wire 1 /$ tempo2 [0] $end
$var wire 1 0$ tempo [21] $end
$var wire 1 1$ tempo [20] $end
$var wire 1 2$ tempo [19] $end
$var wire 1 3$ tempo [18] $end
$var wire 1 4$ tempo [17] $end
$var wire 1 5$ tempo [16] $end
$var wire 1 6$ tempo [15] $end
$var wire 1 7$ tempo [14] $end
$var wire 1 8$ tempo [13] $end
$var wire 1 9$ tempo [12] $end
$var wire 1 :$ tempo [11] $end
$var wire 1 ;$ tempo [10] $end
$var wire 1 <$ tempo [9] $end
$var wire 1 =$ tempo [8] $end
$var wire 1 >$ tempo [7] $end
$var wire 1 ?$ tempo [6] $end
$var wire 1 @$ tempo [5] $end
$var wire 1 A$ tempo [4] $end
$var wire 1 B$ tempo [3] $end
$var wire 1 C$ tempo [2] $end
$var wire 1 D$ tempo [1] $end
$var wire 1 E$ tempo [0] $end
$upscope $end
$upscope $end
$enddefinitions $end
#0
$dumpvars
0)
09
1:
x;
1<
1=
1>
1?
1@
1A
0Y
0h
zi
zj
zk
0l
0m
0n
0o
0p
0q
0r
0s
0t
0u
0v
0w
0x
0y
0z
0{
0|
0}
0~
0!!
0"!
1#!
0$!
0%!
0&!
1'!
0(!
0)!
1*!
0+!
0,!
0-!
0.!
0/!
00!
01!
02!
03!
04!
15!
06!
17!
08!
19!
0:!
0;!
0<!
1=!
0>!
0?!
0@!
0A!
0B!
0C!
0D!
0E!
0F!
0G!
0H!
1I!
0J!
0K!
0L!
0M!
0N!
0O!
0P!
0Q!
0R!
0S!
0T!
0U!
0V!
0W!
0X!
0Y!
0Z!
0[!
0\!
0]!
0^!
0_!
0`!
0a!
0b!
0c!
0d!
0e!
1f!
0g!
0h!
0i!
1j!
0k!
0l!
0m!
0n!
0o!
0p!
1q!
0r!
0s!
0t!
1u!
0v!
0w!
0x!
1y!
0z!
0{!
1|!
0}!
0~!
0!"
1""
0#"
0$"
0%"
0&"
0'"
1("
0)"
0*"
1+"
0,"
0-"
1."
0/"
00"
01"
12"
03"
04"
05"
06"
07"
08"
09"
0:"
0;"
0<"
0="
1>"
0?"
1@"
0A"
0B"
0C"
0D"
0E"
0F"
0G"
1H"
0I"
0J"
0K"
0L"
0M"
1N"
0O"
1P"
0Q"
0R"
0S"
1T"
0U"
0V"
0W"
0X"
1Y"
0Z"
1["
0\"
0]"
0^"
1_"
0`"
1a"
0b"
0c"
0d"
1e"
0f"
1g"
0h"
1i"
0j"
1k"
0l"
1m"
0n"
1o"
0p"
0q"
1r"
0s"
1t"
0u"
1v"
0w"
0x"
0y"
0z"
0{"
0|"
0}"
0~"
0!#
1"#
0##
0$#
0%#
0&#
0'#
0(#
0)#
1*#
0+#
1,#
0-#
0.#
0/#
00#
01#
02#
03#
04#
05#
06#
07#
08#
09#
0:#
0;#
0<#
0=#
0>#
0?#
0@#
0A#
0B#
0C#
0D#
0E#
0F#
0G#
0H#
0I#
0J#
0K#
0L#
0M#
0N#
0O#
0P#
0Q#
0R#
0S#
0T#
0U#
0V#
0W#
0X#
0Y#
0Z#
0[#
0\#
0]#
0^#
0_#
0`#
0a#
0b#
0c#
0d#
0e#
0f#
0g#
0h#
0i#
0j#
0k#
0l#
0m#
0n#
0o#
0p#
0q#
0r#
0s#
0t#
0u#
1v#
1w#
0x#
0y#
0z#
0{#
0|#
0}#
0~#
0!$
0"$
0#$
0$$
0!
0"
0#
0$
0%
0&
0'
1(
02
03
04
05
06
07
08
0B
0C
0D
0E
0F
0G
0H
1I
0J
0K
0L
0M
0N
0O
0P
0Q
0R
0S
0T
0U
0V
0W
0X
0%$
0&$
0'$
0($
0)$
0*$
0+$
0,$
0-$
0.$
0/$
x0$
x1$
x2$
x3$
x4$
x5$
x6$
x7$
08$
09$
0:$
0;$
0<$
0=$
0>$
0?$
0@$
0A$
0B$
xC$
xD$
xE$
1d
1e
1f
0g
0Z
0[
0\
0]
0^
0_
0`
0a
0b
0c
0*
0+
0,
0-
0.
0/
00
01
$end
#2500
1)
1Y
1t
1g
1u
1,$
1K!
0*!
10!
16!
1O!
1\!
1B!
1L!
1N!
1e!
1l!
1p!
1m#
1o#
1l#
1$"
1n#
1p#
1k#
1^!
1P!
13!
1+!
1'"
1W!
1)!
0("
1X!
1/!
1R!
1q#
1r#
1T!
1i!
1)"
1-!
1t#
1*"
0>"
0l!
0+"
1s#
1U!
1u#
1?"
1S"
0$"
0@"
1X"
1N#
0T"
1^"
0Y"
1W"
1U"
1Z"
0_"
1V"
0["
1`"
1\"
1]"
0a"
1B#
1c"
0B#
1b"
0]"
0c"
#5000
0)
0Y
0t
0g
0u
#7500
1)
1Y
1t
1g
1u
1x#
1l
1X
11
#10000
0)
0Y
0t
0g
0u
#12500
1)
1Y
1t
1g
1u
#15000
0)
0Y
0t
0g
0u
#17500
1)
1Y
1t
1g
1u
#20000
0)
1'
0(
0Y
0I
1H
1(!
0v#
0t
0g
0w#
1&"
0u
#22500
1)
1Y
1t
1g
1u
1+$
0,$
0K!
1*!
00!
06!
0O!
0\!
0B!
0L!
0N!
0e!
1l!
1+"
0p!
0m#
0l#
1$"
1@"
0+!
1Y!
1[!
1>!
1@!
0^!
1C!
1d!
1n!
1v!
1z!
1}!
1,"
1A"
1j#
1y#
1w!
1s!
1h!
0q!
0X!
0/!
0A"
0n#
0p#
0,"
1^!
0C!
1]!
0P!
03!
1+!
0W!
1X!
1/!
0R!
1D!
1q!
1_!
0q#
1p#
1~!
1!"
0r#
1`!
0p#
0T!
0U!
1a!
0u#
1%"
#25000
0)
0Y
0t
0g
0u
#27500
1)
1Y
1t
1g
1u
0x#
1z#
1m
0l
1W
0X
01
10
#30000
0)
0Y
0t
0g
0u
#32500
1)
1Y
1t
1g
1u
#35000
0)
0Y
0t
0g
0u
#37500
1)
1Y
1t
1g
1u
#40000
0)
1(
0Y
1I
1v#
0t
0g
1w#
0u
#42500
1)
1Y
1t
1g
1u
1,$
1K!
0*!
10!
16!
1O!
1\!
1B!
1L!
1N!
1e!
0l!
0+"
1p!
1m#
0o#
0y!
1l#
0$"
0@"
1A"
0z!
15"
1n#
1p#
1,"
0k#
1g!
0^!
1C!
1P!
13!
0+!
1W!
0X!
0/!
1R!
0D!
0q!
0h!
0."
1q#
16"
1r#
1/"
0p#
1r!
1T!
1U!
0s!
02"
10"
1u#
13"
14"
#45000
0)
0Y
0t
0g
0u
#47500
1)
1Y
1t
1g
1u
1x#
1l
1X
11
#50000
0)
0Y
0t
0g
0u
#52500
1)
1Y
1t
1g
1u
#55000
0)
0Y
0t
0g
0u
#57500
1)
1Y
1t
1g
1u
#60000
0)
0(
0'
1&
0Y
0I
0H
1G
1C"
0(!
0v#
0t
0g
0w#
0&"
1D"
0u
#62500
1)
1Y
1t
1g
1u
0+$
1*$
0,$
0K!
1*!
00!
06!
0O!
0\!
0B!
0L!
0N!
0e!
1l!
1+"
0p!
0m#
1$"
1@"
0)!
03!
0f!
1:!
06"
0k"
18"
1:"
1_#
1^#
1+!
0Y!
0[!
0>!
1^!
0C!
0n!
1o!
0v!
1y!
0}!
0,"
1-"
11"
0A"
0j#
0y#
03"
1!#
0/"
1G"
1z!
05"
0w!
1s!
12"
1D!
1q!
1X!
1/!
1;"
1`#
1?!
0-!
0t#
1A"
0^"
0n#
1,"
0X"
1k#
0g!
0^!
0]!
0P!
13!
1f!
0+!
0'"
0W!
1)!
0X!
0/!
0k#
0R!
0_!
1h!
1."
0_#
0q#
0^#
1<"
1p#
0r!
1E!
13"
0!#
16"
1k"
0~!
1\#
00"
1'#
04"
1c#
1]#
0!"
0`#
0'#
14"
1F!
0s!
1="
1/"
0G"
0`!
0T!
0r#
1-!
1t#
0u#
0U!
0a!
0\#
10"
1B"
1G!
0c#
0%"
0]#
#65000
0)
0Y
0t
0g
0u
#67500
1)
1Y
1t
1g
1u
0x#
0z#
1{#
1n
0m
0l
1V
0W
0X
01
00
1/
#70000
0)
0Y
0t
0g
0u
#72500
1)
1Y
1t
1g
1u
#75000
0)
0Y
0t
0g
0u
#77500
1)
1Y
1t
1g
1u
#80000
0)
1(
0Y
1I
1v#
0t
0g
1w#
0u
